%!PS-Adobe-3.0 EPSF-3.0
%%Creator: MATLAB, The Mathworks, Inc. Version 7.9.0.529 (R2009b). Operating System: Darwin 10.5.0 Darwin Kernel Version 10.5.0: Fri Nov  5 23:20:39 PDT 2010; root:xnu-1504.9.17~1/RELEASE_I386 i386.
%%Title: /Users/viry/ouestAfrique/sensibilite/Anestis/article/figures/SST/figure9.eps
%%CreationDate: 12/10/2010  19:45:54
%%DocumentNeededFonts: Helvetica
%%DocumentProcessColors: Cyan Magenta Yellow Black
%%LanguageLevel: 2
%%Pages: 1
%%BoundingBox:    73   252   521   589
%%EndComments

%%BeginProlog
% MathWorks dictionary
/MathWorks 160 dict begin
% definition operators
/bdef {bind def} bind def
/ldef {load def} bind def
/xdef {exch def} bdef
/xstore {exch store} bdef
% operator abbreviations
/c  /clip ldef
/cc /concat ldef
/cp /closepath ldef
/gr /grestore ldef
/gs /gsave ldef
/mt /moveto ldef
/np /newpath ldef
/cm /currentmatrix ldef
/sm /setmatrix ldef
/rm /rmoveto ldef
/rl /rlineto ldef
/s {show newpath} bdef
/sc {setcmykcolor} bdef
/sr /setrgbcolor ldef
/sg /setgray ldef
/w /setlinewidth ldef
/j /setlinejoin ldef
/cap /setlinecap ldef
/rc {rectclip} bdef
/rf {rectfill} bdef
% page state control
/pgsv () def
/bpage {/pgsv save def} bdef
/epage {pgsv restore} bdef
/bplot /gsave ldef
/eplot {stroke grestore} bdef
% orientation switch
/portraitMode 0 def /landscapeMode 1 def /rotateMode 2 def
% coordinate system mappings
/dpi2point 0 def
% font control
/FontSize 0 def
/FMS {/FontSize xstore findfont [FontSize 0 0 FontSize neg 0 0]
  makefont setfont} bdef
/reencode {exch dup where {pop load} {pop StandardEncoding} ifelse
  exch dup 3 1 roll findfont dup length dict begin
  { 1 index /FID ne {def}{pop pop} ifelse } forall
  /Encoding exch def currentdict end definefont pop} bdef
/isroman {findfont /CharStrings get /Agrave known} bdef
/FMSR {3 1 roll 1 index dup isroman {reencode} {pop pop} ifelse
  exch FMS} bdef
/csm {1 dpi2point div -1 dpi2point div scale neg translate
 dup landscapeMode eq {pop -90 rotate}
  {rotateMode eq {90 rotate} if} ifelse} bdef
% line types: solid, dotted, dashed, dotdash
/SO { [] 0 setdash } bdef
/DO { [.5 dpi2point mul 4 dpi2point mul] 0 setdash } bdef
/DA { [6 dpi2point mul] 0 setdash } bdef
/DD { [.5 dpi2point mul 4 dpi2point mul 6 dpi2point mul 4
  dpi2point mul] 0 setdash } bdef
% macros for lines and objects
/L {lineto stroke} bdef
/MP {3 1 roll moveto 1 sub {rlineto} repeat} bdef
/AP {{rlineto} repeat} bdef
/PDlw -1 def
/W {/PDlw currentlinewidth def setlinewidth} def
/PP {closepath eofill} bdef
/DP {closepath stroke} bdef
/MR {4 -2 roll moveto dup  0 exch rlineto exch 0 rlineto
  neg 0 exch rlineto closepath} bdef
/FR {MR stroke} bdef
/PR {MR fill} bdef
/L1i {{currentfile picstr readhexstring pop} image} bdef
/tMatrix matrix def
/MakeOval {newpath tMatrix currentmatrix pop translate scale
0 0 1 0 360 arc tMatrix setmatrix} bdef
/FO {MakeOval stroke} bdef
/PO {MakeOval fill} bdef
/PD {currentlinewidth 2 div 0 360 arc fill
   PDlw -1 eq not {PDlw w /PDlw -1 def} if} def
/FA {newpath tMatrix currentmatrix pop translate scale
  0 0 1 5 -2 roll arc tMatrix setmatrix stroke} bdef
/PA {newpath tMatrix currentmatrix pop	translate 0 0 moveto scale
  0 0 1 5 -2 roll arc closepath tMatrix setmatrix fill} bdef
/FAn {newpath tMatrix currentmatrix pop translate scale
  0 0 1 5 -2 roll arcn tMatrix setmatrix stroke} bdef
/PAn {newpath tMatrix currentmatrix pop translate 0 0 moveto scale
  0 0 1 5 -2 roll arcn closepath tMatrix setmatrix fill} bdef
/vradius 0 def /hradius 0 def /lry 0 def
/lrx 0 def /uly 0 def /ulx 0 def /rad 0 def
/MRR {/vradius xdef /hradius xdef /lry xdef /lrx xdef /uly xdef
  /ulx xdef newpath tMatrix currentmatrix pop ulx hradius add uly
  vradius add translate hradius vradius scale 0 0 1 180 270 arc 
  tMatrix setmatrix lrx hradius sub uly vradius add translate
  hradius vradius scale 0 0 1 270 360 arc tMatrix setmatrix
  lrx hradius sub lry vradius sub translate hradius vradius scale
  0 0 1 0 90 arc tMatrix setmatrix ulx hradius add lry vradius sub
  translate hradius vradius scale 0 0 1 90 180 arc tMatrix setmatrix
  closepath} bdef
/FRR {MRR stroke } bdef
/PRR {MRR fill } bdef
/MlrRR {/lry xdef /lrx xdef /uly xdef /ulx xdef /rad lry uly sub 2 div def
  newpath tMatrix currentmatrix pop ulx rad add uly rad add translate
  rad rad scale 0 0 1 90 270 arc tMatrix setmatrix lrx rad sub lry rad
  sub translate rad rad scale 0 0 1 270 90 arc tMatrix setmatrix
  closepath} bdef
/FlrRR {MlrRR stroke } bdef
/PlrRR {MlrRR fill } bdef
/MtbRR {/lry xdef /lrx xdef /uly xdef /ulx xdef /rad lrx ulx sub 2 div def
  newpath tMatrix currentmatrix pop ulx rad add uly rad add translate
  rad rad scale 0 0 1 180 360 arc tMatrix setmatrix lrx rad sub lry rad
  sub translate rad rad scale 0 0 1 0 180 arc tMatrix setmatrix
  closepath} bdef
/FtbRR {MtbRR stroke } bdef
/PtbRR {MtbRR fill } bdef
/stri 6 array def /dtri 6 array def
/smat 6 array def /dmat 6 array def
/tmat1 6 array def /tmat2 6 array def /dif 3 array def
/asub {/ind2 exch def /ind1 exch def dup dup
  ind1 get exch ind2 get sub exch } bdef
/tri_to_matrix {
  2 0 asub 3 1 asub 4 0 asub 5 1 asub
  dup 0 get exch 1 get 7 -1 roll astore } bdef
/compute_transform {
  dmat dtri tri_to_matrix tmat1 invertmatrix 
  smat stri tri_to_matrix tmat2 concatmatrix } bdef
/ds {stri astore pop} bdef
/dt {dtri astore pop} bdef
/db {2 copy /cols xdef /rows xdef mul dup 3 mul string
  currentfile 
  3 index 0 eq {/ASCIIHexDecode filter}
  {/ASCII85Decode filter 3 index 2 eq {/RunLengthDecode filter} if }
  ifelse exch readstring pop
  dup 0 3 index getinterval /rbmap xdef
  dup 2 index dup getinterval /gbmap xdef
  1 index dup 2 mul exch getinterval /bbmap xdef pop pop}bdef
/it {gs np dtri aload pop moveto lineto lineto cp c
  cols rows 8 compute_transform 
  rbmap gbmap bbmap true 3 colorimage gr}bdef
/il {newpath moveto lineto stroke}bdef
currentdict end def
%%EndProlog

%%BeginSetup
MathWorks begin

0 cap

end
%%EndSetup

%%Page: 1 1
%%BeginPageSetup
%%PageBoundingBox:    73   252   521   589
MathWorks begin
bpage
%%EndPageSetup

%%BeginObject: obj1
bplot

/dpi2point 12 def
portraitMode 0876 7068 csm

    0     0  5376  4034 rc
85 dict begin %Colortable dictionary
/c0 { 0.000000 0.000000 0.000000 sr} bdef
/c1 { 1.000000 1.000000 1.000000 sr} bdef
/c2 { 0.900000 0.000000 0.000000 sr} bdef
/c3 { 0.000000 0.820000 0.000000 sr} bdef
/c4 { 0.000000 0.000000 0.800000 sr} bdef
/c5 { 0.910000 0.820000 0.320000 sr} bdef
/c6 { 1.000000 0.260000 0.820000 sr} bdef
/c7 { 0.000000 0.820000 0.820000 sr} bdef
c0
1 j
1 sg
   0    0 5377 4035 rf
6 w
0 3287 4166 0 0 -3287 699 3590 4 MP
PP
-4166 0 0 3287 4166 0 0 -3287 699 3590 5 MP stroke
4 w
DO
SO
6 w
0 sg
 699 3590 mt 4865 3590 L
 699  303 mt 4865  303 L
 699 3590 mt  699  303 L
4865 3590 mt 4865  303 L
 699 3590 mt 4865 3590 L
 699 3590 mt  699  303 L
 944 3590 mt  944 3548 L
 944  303 mt  944  344 L
%%IncludeResource: font Helvetica
/Helvetica /ISOLatin1Encoding 120 FMSR

 811 3735 mt 
(Marc) s
1434 3590 mt 1434 3548 L
1434  303 mt 1434  344 L
1367 3735 mt 
(Av) s
1924 3590 mt 1924 3548 L
1924  303 mt 1924  344 L
1813 3735 mt 
(May) s
2431 3590 mt 2431 3548 L
2431  303 mt 2431  344 L
2336 3735 mt 
(Jun) s
2922 3590 mt 2922 3548 L
2922  303 mt 2922  344 L
2847 3735 mt 
(Jul) s
3429 3590 mt 3429 3548 L
3429  303 mt 3429  344 L
3325 3735 mt 
(Aug) s
3937 3590 mt 3937 3548 L
3937  303 mt 3937  344 L
3814 3735 mt 
(Sept) s
4444 3590 mt 4444 3548 L
4444  303 mt 4444  344 L
4351 3735 mt 
(Oct) s
 699 3090 mt  740 3090 L
4865 3090 mt 4823 3090 L
 428 3134 mt 
(-0.1) s
 699 2518 mt  740 2518 L
4865 2518 mt 4823 2518 L
 361 2562 mt 
(-0.05) s
 699 1946 mt  740 1946 L
4865 1946 mt 4823 1946 L
 598 1990 mt 
(0) s
 699 1374 mt  740 1374 L
4865 1374 mt 4823 1374 L
 431 1418 mt 
(0.05) s
 699  801 mt  740  801 L
4865  801 mt 4823  801 L
 498  845 mt 
(0.1) s
 699 3590 mt 4865 3590 L
 699  303 mt 4865  303 L
 699 3590 mt  699  303 L
4865 3590 mt 4865  303 L
gs 699 303 4167 3288 rc
/c8 { 0.000000 0.000000 1.000000 sr} bdef
c8
123 16 123 -4 122 -16 123 5 122 27 123 55 122 45 123 51 
122 101 123 72 122 15 123 -2 122 67 123 127 122 94 123 60 
122 19 123 -6 123 15 122 29 123 -31 122 -89 123 -89 122 -84 
123 -74 122 -62 123 -65 122 -87 123 -60 122 -10 123 25 122 21 
123 -49 122 -119 699 1618 35 MP stroke
/c9 { 0.000000 0.500000 0.000000 sr} bdef
c9
123 57 123 27 122 -2 123 -44 122 -100 123 -127 122 -111 123 -95 
122 -108 123 -93 122 -41 123 -12 122 -58 123 -89 122 -39 123 17 
122 59 123 62 123 62 122 66 123 100 122 117 123 84 122 59 
123 47 122 -10 123 -31 122 3 123 -13 122 -10 123 53 122 80 
123 22 122 -80 699 2370 35 MP stroke
DD
c8
123 -29 123 -6 122 -24 123 -2 122 20 123 51 122 33 123 39 
122 92 123 78 122 20 123 -3 122 24 123 165 122 136 123 89 
122 21 123 -33 123 23 122 58 123 -61 122 -128 123 -104 122 -97 
123 -85 122 -57 123 -25 122 -79 123 -44 122 -10 123 -5 122 -7 
123 -46 122 -63 699 1715 35 MP stroke
c9
123 6 123 10 122 -6 123 -64 122 -72 123 -84 122 -109 123 -111 
122 -100 123 -145 122 -81 123 18 122 -55 123 -43 122 -51 123 69 
122 15 123 22 123 44 122 55 123 147 122 101 123 64 122 52 
123 81 122 41 123 32 122 49 123 34 122 -49 123 32 122 104 
123 -34 122 -63 699 2448 35 MP stroke
c8
123 66 123 -1 122 -18 123 27 122 14 123 61 122 44 123 82 
122 102 123 64 122 23 123 -5 122 59 123 105 122 79 123 47 
122 35 123 30 123 11 122 -12 123 -9 122 -27 123 -48 122 -91 
123 -72 122 -86 123 -137 122 -123 123 -89 122 -38 123 88 122 95 
123 -72 122 -182 699 1541 35 MP stroke
c9
123 62 123 55 122 -1 123 -37 122 -93 123 -155 122 -98 123 -61 
122 -139 123 -100 122 32 123 29 122 -115 123 -135 122 -57 123 -45 
122 98 123 90 123 107 122 102 123 52 122 157 123 121 122 75 
123 59 122 -8 123 -75 122 -45 123 5 122 11 123 49 122 75 
123 10 122 -58 699 2146 35 MP stroke
SO
gr

c9
24 W
c8
699 1631 PD
24 W
821 1508 PD
24 W
944 1466 PD
24 W
1066 1498 PD
24 W
1189 1521 PD
24 W
1311 1499 PD
24 W
1434 1434 PD
24 W
1556 1300 PD
24 W
1679 1210 PD
24 W
1801 1165 PD
24 W
1924 1111 PD
24 W
2046 1027 PD
24 W
2169 961 PD
24 W
2291 861 PD
24 W
2414 836 PD
24 W
2536 849 PD
24 W
2659 863 PD
24 W
2782 859 PD
24 W
2904 902 PD
24 W
3027 975 PD
24 W
3149 1069 PD
24 W
3272 1197 PD
24 W
3394 1267 PD
24 W
3517 1232 PD
24 W
3639 1230 PD
24 W
3762 1328 PD
24 W
3884 1473 PD
24 W
4007 1522 PD
24 W
4129 1541 PD
24 W
4252 1569 PD
24 W
4374 1594 PD
24 W
4497 1598 PD
24 W
4619 1591 PD
24 W
4742 1593 PD
24 W
4865 1602 PD
gs 699 303 4167 3288 rc
gr

24 W
c9
699 2269 PD
24 W
821 2185 PD
24 W
944 2189 PD
24 W
1066 2240 PD
24 W
1189 2286 PD
24 W
1311 2310 PD
24 W
1434 2318 PD
24 W
1556 2368 PD
24 W
1679 2407 PD
24 W
1801 2434 PD
24 W
1924 2508 PD
24 W
2046 2588 PD
24 W
2169 2644 PD
24 W
2291 2715 PD
24 W
2414 2800 PD
24 W
2536 2863 PD
24 W
2659 2958 PD
24 W
2782 3050 PD
24 W
2904 3078 PD
24 W
3027 3116 PD
24 W
3149 3085 PD
24 W
3272 2927 PD
24 W
3394 2859 PD
24 W
3517 2842 PD
24 W
3639 2777 PD
24 W
3762 2697 PD
24 W
3884 2579 PD
24 W
4007 2509 PD
24 W
4129 2423 PD
24 W
4252 2336 PD
24 W
4374 2256 PD
24 W
4497 2242 PD
24 W
4619 2255 PD
24 W
4742 2275 PD
24 W
4865 2287 PD
gs 699 303 4167 3288 rc
gr

0 sg
2648 3878 mt 
(Time) s
 279 2444 mt  -90 rotate
(First Eigenfunction) s
90 rotate
2103  208 mt 
(Sea Surface Temperature) s
 682 3633 mt 
( ) s
4849  345 mt 
( ) s
1 sg
0 626 1471 0 0 -626 3335 989 4 MP
PP
-1471 0 0 626 1471 0 0 -626 3335 989 5 MP stroke
4 w
DO
SO
6 w
0 sg
3335  989 mt 4806  989 L
3335  363 mt 4806  363 L
3335  989 mt 3335  363 L
4806  989 mt 4806  363 L
3335  989 mt 4806  989 L
3335  989 mt 3335  363 L
3335  989 mt 4806  989 L
3335  363 mt 4806  363 L
3335  989 mt 3335  363 L
4806  989 mt 4806  363 L
3806  498 mt 
(Mean cluster 1) s
gs 3335 363 1472 627 rc
c8
362 0 3407 455 2 MP stroke
gr

c8
0 sg
3806  645 mt 
(Mean clust 2) s
gs 3335 363 1472 627 rc
c9
362 0 3407 602 2 MP stroke
gr

c9
0 sg
3806  792 mt 
(quart 1,3 cluster 1) s
gs 3335 363 1472 627 rc
DD
c8
362 0 3407 749 2 MP stroke
SO
gr

c8
0 sg
3806  939 mt 
(quart 1,3 clust 2) s
gs 3335 363 1472 627 rc
DD
c9
362 0 3407 896 2 MP stroke
SO
gr

c9

end %%Color Dict

eplot
%%EndObject

epage
end

showpage

%%Trailer
%%EOF
